Week 7 – ESS 523c
…
Forecast

Use modeltime_forecast() to generate forecasts for the next 120 months (10 years).

Use plot_modeltime_forecast() to visualize the forecasts.

(forecast <- calibration_table  |> 
  modeltime_forecast(h = "60 months", 
                     new_data = testing,
                     actual_data = co2_tbl) )
#> # Forecast Results
#> 
#> # A tibble: 828 × 7
#>    .model_id .model_desc .key   .index     .value .conf_lo .conf_hi
#>        <int> <chr>       <fct>  <date>      <dbl>    <dbl>    <dbl>
#>  1        NA ACTUAL      actual 1959-01-01   315.       NA       NA
#>  2        NA ACTUAL      actual 1959-02-01   316.       NA       NA
#>  3        NA ACTUAL      actual 1959-03-01   316.       NA       NA
#>  4        NA ACTUAL      actual 1959-04-01   318.       NA       NA
#>  5        NA ACTUAL      actual 1959-05-01   318.       NA       NA
#>  6        NA ACTUAL      actual 1959-06-01   318        NA       NA
#>  7        NA ACTUAL      actual 1959-07-01   316.       NA       NA
#>  8        NA ACTUAL      actual 1959-08-01   315.       NA       NA
#>  9        NA ACTUAL      actual 1959-09-01   314.       NA       NA
#> 10        NA ACTUAL      actual 1959-10-01   313.       NA       NA
#> # ℹ 818 more rows
…
