ESS 523c – Week 1
…
The select() function is used to select columns from a dataset.

It is useful when you want to work with specific columns.

Example: Selecting the species column from the penguins dataset.

select(penguins, species)
#> # A tibble: 344 × 1
#>    species
#>    <fct>  
#>  1 Adelie 
#>  2 Adelie 
#>  3 Adelie 
#>  4 Adelie 
#>  5 Adelie 
#>  6 Adelie 
#>  7 Adelie 
#>  8 Adelie 
#>  9 Adelie 
#> 10 Adelie 
#> # ℹ 334 more rows
…
The filter() function is used to filter rows based on a condition.

It is useful when you want to work with specific rows.

Example: Filtering the penguins dataset to include only Adelie penguins.

filter(penguins, species == "Adelie")
#> # A tibble: 152 × 8
#>    species island    bill_length_mm bill_depth_mm flipper_length_mm body_mass_g
#>    <fct>   <fct>              <dbl>         <dbl>             <int>       <int>
#>  1 Adelie  Torgersen           39.1          18.7               181        3750
#>  2 Adelie  Torgersen           39.5          17.4               186        3800
#>  3 Adelie  Torgersen           40.3          18                 195        3250
#>  4 Adelie  Torgersen           NA            NA                  NA          NA
#>  5 Adelie  Torgersen           36.7          19.3               193        3450
#>  6 Adelie  Torgersen           39.3          20.6               190        3650
#>  7 Adelie  Torgersen           38.9          17.8               181        3625
#>  8 Adelie  Torgersen           39.2          19.6               195        4675
#>  9 Adelie  Torgersen           34.1          18.1               193        3475
#> 10 Adelie  Torgersen           42            20.2               190        4250
#> # ℹ 142 more rows
#> # ℹ 2 more variables: sex <fct>, year <int>
…
The mutate() function is used to create new columns or modify existing ones.

It is useful when you want to add new information to your dataset.

Example: Creating a new column bill_length_cm from bill_length_mm.

Note the use of the tidy_select helper starts_with

mutate(penguins, bill_length_cm = bill_length_mm / 100) |> 
  select(starts_with("bill"))
#> # A tibble: 344 × 3
#>    bill_length_mm bill_depth_mm bill_length_cm
#>             <dbl>         <dbl>          <dbl>
#>  1           39.1          18.7          0.391
#>  2           39.5          17.4          0.395
#>  3           40.3          18            0.403
#>  4           NA            NA           NA    
#>  5           36.7          19.3          0.367
#>  6           39.3          20.6          0.393
#>  7           38.9          17.8          0.389
#>  8           39.2          19.6          0.392
#>  9           34.1          18.1          0.341
#> 10           42            20.2          0.42 
#> # ℹ 334 more rows
…
select(penguins, species, contains('bill')) |> 
  left_join(species, by = "species")
#> # A tibble: 344 × 4
#>    species bill_length_mm bill_depth_mm species_id
#>    <chr>            <dbl>         <dbl>      <dbl>
#>  1 Adelie            39.1          18.7          1
#>  2 Adelie            39.5          17.4          1
#>  3 Adelie            40.3          18            1
#>  4 Adelie            NA            NA            1
#>  5 Adelie            36.7          19.3          1
#>  6 Adelie            39.3          20.6          1
#>  7 Adelie            38.9          17.8          1
#>  8 Adelie            39.2          19.6          1
#>  9 Adelie            34.1          18.1          1
#> 10 Adelie            42            20.2          1
#> # ℹ 334 more rows
…
select(penguins, species, contains('bill')) |> 
  right_join(species, by = "species")
#> # A tibble: 344 × 4
#>    species bill_length_mm bill_depth_mm species_id
#>    <chr>            <dbl>         <dbl>      <dbl>
#>  1 Adelie            39.1          18.7          1
#>  2 Adelie            39.5          17.4          1
#>  3 Adelie            40.3          18            1
#>  4 Adelie            NA            NA            1
#>  5 Adelie            36.7          19.3          1
#>  6 Adelie            39.3          20.6          1
#>  7 Adelie            38.9          17.8          1
#>  8 Adelie            39.2          19.6          1
#>  9 Adelie            34.1          18.1          1
#> 10 Adelie            42            20.2          1
#> # ℹ 334 more rows
…
select(penguins, species, contains('bill')) |> 
  right_join(species, by = "species")
#> # A tibble: 344 × 4
#>    species bill_length_mm bill_depth_mm species_id
#>    <chr>            <dbl>         <dbl>      <dbl>
#>  1 Adelie            39.1          18.7          1
#>  2 Adelie            39.5          17.4          1
#>  3 Adelie            40.3          18            1
#>  4 Adelie            NA            NA            1
#>  5 Adelie            36.7          19.3          1
#>  6 Adelie            39.3          20.6          1
#>  7 Adelie            38.9          17.8          1
#>  8 Adelie            39.2          19.6          1
#>  9 Adelie            34.1          18.1          1
#> 10 Adelie            42            20.2          1
#> # ℹ 334 more rows
…
select(penguins, species, contains('bill')) |> 
  right_join(species, by = "species")
#> # A tibble: 344 × 4
#>    species bill_length_mm bill_depth_mm species_id
#>    <chr>            <dbl>         <dbl>      <dbl>
#>  1 Adelie            39.1          18.7          1
#>  2 Adelie            39.5          17.4          1
#>  3 Adelie            40.3          18            1
#>  4 Adelie            NA            NA            1
#>  5 Adelie            36.7          19.3          1
#>  6 Adelie            39.3          20.6          1
#>  7 Adelie            38.9          17.8          1
#>  8 Adelie            39.2          19.6          1
#>  9 Adelie            34.1          18.1          1
#> 10 Adelie            42            20.2          1
#> # ℹ 334 more rows
…
Filtering joins retain only rows that match between datasets.

Example: Filtering the penguins dataset to include only rows with matching species_id.

select(penguins, species, contains('bill')) |> 
  semi_join(species, by = "species")
#> # A tibble: 344 × 3
#>    species bill_length_mm bill_depth_mm
#>    <fct>            <dbl>         <dbl>
#>  1 Adelie            39.1          18.7
#>  2 Adelie            39.5          17.4
#>  3 Adelie            40.3          18  
#>  4 Adelie            NA            NA  
#>  5 Adelie            36.7          19.3
#>  6 Adelie            39.3          20.6
#>  7 Adelie            38.9          17.8
#>  8 Adelie            39.2          19.6
#>  9 Adelie            34.1          18.1
#> 10 Adelie            42            20.2
#> # ℹ 334 more rows
…
The pivot_longer() function is used to convert wide data to long data.

It is useful when you want to work with data in a tidy format.

Example: Converting the penguins dataset from wide to long format.

(data.long = penguins |> 
  select(species, bill_length_mm, body_mass_g) |> 
  mutate(penguin_id = 1:n()) |> 
  pivot_longer(-c(penguin_id, species), 
               names_to = "Measure", 
               values_to = "value"))
#> # A tibble: 688 × 4
#>    species penguin_id Measure         value
#>    <fct>        <int> <chr>           <dbl>
#>  1 Adelie           1 bill_length_mm   39.1
#>  2 Adelie           1 body_mass_g    3750  
#>  3 Adelie           2 bill_length_mm   39.5
#>  4 Adelie           2 body_mass_g    3800  
#>  5 Adelie           3 bill_length_mm   40.3
#>  6 Adelie           3 body_mass_g    3250  
#>  7 Adelie           4 bill_length_mm   NA  
#>  8 Adelie           4 body_mass_g      NA  
#>  9 Adelie           5 bill_length_mm   36.7
#> 10 Adelie           5 body_mass_g    3450  
#> # ℹ 678 more rows
…
The pivot_wider() function is used to convert long data to wide data.

It is useful when you want to work with data in a wide format.

Example: Converting the data.long dataset from long to wide format.

data.long |> 
  pivot_wider(names_from = "Measure", 
              values_from = "value")
#> # A tibble: 344 × 4
#>    species penguin_id bill_length_mm body_mass_g
#>    <fct>        <int>          <dbl>       <dbl>
#>  1 Adelie           1           39.1        3750
#>  2 Adelie           2           39.5        3800
#>  3 Adelie           3           40.3        3250
#>  4 Adelie           4           NA            NA
#>  5 Adelie           5           36.7        3450
#>  6 Adelie           6           39.3        3650
#>  7 Adelie           7           38.9        3625
#>  8 Adelie           8           39.2        4675
#>  9 Adelie           9           34.1        3475
#> 10 Adelie          10           42          4250
#> # ℹ 334 more rows
…
Example: Nesting the penguins dataset by species.

penguins |> 
  nest(data = -species)
#> # A tibble: 3 × 2
#>   species   data              
#>   <fct>     <list>            
#> 1 Adelie    <tibble [152 × 7]>
#> 2 Gentoo    <tibble [124 × 7]>
#> 3 Chinstrap <tibble [68 × 7]>

penguins |> 
  nest(data = -species) |> 
  unnest(data)
#> # A tibble: 344 × 8
#>    species island    bill_length_mm bill_depth_mm flipper_length_mm body_mass_g
#>    <fct>   <fct>              <dbl>         <dbl>             <int>       <int>
#>  1 Adelie  Torgersen           39.1          18.7               181        3750
#>  2 Adelie  Torgersen           39.5          17.4               186        3800
#>  3 Adelie  Torgersen           40.3          18                 195        3250
#>  4 Adelie  Torgersen           NA            NA                  NA          NA
#>  5 Adelie  Torgersen           36.7          19.3               193        3450
#>  6 Adelie  Torgersen           39.3          20.6               190        3650
#>  7 Adelie  Torgersen           38.9          17.8               181        3625
#>  8 Adelie  Torgersen           39.2          19.6               195        4675
#>  9 Adelie  Torgersen           34.1          18.1               193        3475
#> 10 Adelie  Torgersen           42            20.2               190        4250
#> # ℹ 334 more rows
#> # ℹ 2 more variables: sex <fct>, year <int>
…
(rivers <- sf::read_sf('data/majorrivers_0_0/MajorRivers.shp'))
#> Simple feature collection with 98 features and 4 fields
#> Geometry type: MULTILINESTRING
#> Dimension:     XY
#> Bounding box:  xmin: -164.8874 ymin: -36.96945 xmax: 160.7636 ymax: 71.39249
#> Geodetic CRS:  WGS 84
#> # A tibble: 98 × 5
#>    NAME          SYSTEM MILES KILOMETERS                                geometry
#>    <chr>         <chr>  <dbl>      <dbl>                   <MULTILINESTRING [°]>
#>  1 Kolyma        <NA>   2552.      4106. ((144.8419 61.75915, 144.8258 61.8036,…
#>  2 Parana        Parana 1616.      2601. ((-51.0064 -20.07941, -51.02972 -20.22…
#>  3 San Francisco <NA>   1494.      2404. ((-46.43639 -20.25807, -46.49835 -20.2…
#>  4 Japura        Amazon 1223.      1968. ((-76.71056 1.624166, -76.70029 1.6883…
#>  5 Putumayo      Amazon  890.      1432. ((-76.86806 1.300553, -76.86695 1.295,…
#>  6 Rio Maranon   Amazon  889.      1431. ((-73.5079 -4.459834, -73.79197 -4.621…
#>  7 Ucayali       Amazon 1298.      2089. ((-73.5079 -4.459834, -73.51585 -4.506…
#>  8 Guapore       Amazon  394.       634. ((-65.39585 -10.39333, -65.39578 -10.3…
#>  9 Madre de Dios Amazon  568.       914. ((-65.39585 -10.39333, -65.45279 -10.4…
#> 10 Amazon        Amazon 1890.      3042. ((-73.5079 -4.459834, -73.45141 -4.427…
#> # ℹ 88 more rows
…
