ESS 523c – Week 3
…
Every Starbucks in the World

What county has the most Starbucks in each state?

(starbucks = readr::read_csv('../labs/data/directory.csv') |> 
  filter(!is.na(Latitude), Country == "US") |> 
  st_as_sf(coords = c("Longitude", "Latitude"), crs = 4326) |> 
  st_transform(5070))
#> Simple feature collection with 13608 features and 11 fields
#> Geometry type: POINT
#> Dimension:     XY
#> Bounding box:  xmin: -6223543 ymin: 278590.9 xmax: 2122577 ymax: 5307178
#> Projected CRS: NAD83 / Conus Albers
#> # A tibble: 13,608 × 12
#>    Brand     `Store Number` `Store Name` `Ownership Type` `Street Address` City 
#>  * <chr>     <chr>          <chr>        <chr>            <chr>            <chr>
#>  1 Starbucks 3513-125945    Safeway-Anc… Licensed         5600 Debarr Rd … Anch…
#>  2 Starbucks 74352-84449    Safeway-Anc… Licensed         1725 Abbott Rd   Anch…
#>  3 Starbucks 12449-152385   Safeway - A… Licensed         1501 Huffman Rd  Anch…
#>  4 Starbucks 24936-233524   100th & C S… Company Owned    320 W. 100th Av… Anch…
#>  5 Starbucks 8973-85630     Old Seward … Company Owned    1005 E Dimond B… Anch…
#>  6 Starbucks 72788-84447    Fred Meyer … Licensed         1000 E Northern… Anch…
#>  7 Starbucks 79549-106150   Safeway - A… Licensed         3101 PENLAND PK… Anch…
#>  8 Starbucks 75988-107245   ANC Main Te… Licensed         HMSHost, 500 We… Anch…
#>  9 Starbucks 11426-99254    Tudor Rd an… Company Owned    110 W. Tudor Rd… Anch…
#> 10 Starbucks 20349-108249   Fred Meyer-… Licensed         7701 Debarr Road Anch…
#> # ℹ 13,598 more rows
#> # ℹ 6 more variables: `State/Province` <chr>, Country <chr>, Postcode <chr>,
#> #   `Phone Number` <chr>, Timezone <chr>, geometry <POINT [m]>
…
