ESS 523c – Week 2
…
Writing takes place in the same fashion, using st_write:

st_write(co, "data/co.shp")

or its quiet alternative that silently overwrites existing files by default,

write_sf(co, "co.shp") # silently overwrites

From Tables (e.g. CSV)

Spatial data can also be created from CSV and other flat files once it is in R:

(cities = readr::read_csv("../labs/data/uscities.csv") |> 
  select(city, state_name, county_name, population, lat, lng) )
#> # A tibble: 31,254 × 6
#>    city         state_name           county_name         population   lat    lng
#>    <chr>        <chr>                <chr>                    <dbl> <dbl>  <dbl>
#>  1 New York     New York             Queens                18832416  40.7  -73.9
#>  2 Los Angeles  California           Los Angeles           11885717  34.1 -118. 
#>  3 Chicago      Illinois             Cook                   8489066  41.8  -87.7
#>  4 Miami        Florida              Miami-Dade             6113982  25.8  -80.2
#>  5 Houston      Texas                Harris                 6046392  29.8  -95.4
#>  6 Dallas       Texas                Dallas                 5843632  32.8  -96.8
#>  7 Philadelphia Pennsylvania         Philadelphia           5696588  40.0  -75.1
#>  8 Atlanta      Georgia              Fulton                 5211164  33.8  -84.4
#>  9 Washington   District of Columbia District of Columb…    5146120  38.9  -77.0
#> 10 Boston       Massachusetts        Suffolk                4355184  42.3  -71.1
#> # ℹ 31,244 more rows

To do this, you must specify the X and the Y coordinate columns as well as a CRS:

A typical lat/long CRS is EPSG:4326

(cities_sf = st_as_sf(cities, coords = c("lng", "lat"), crs = 4326))
#> Simple feature collection with 31254 features and 4 fields
#> Geometry type: POINT
#> Dimension:     XY
#> Bounding box:  xmin: -176.6295 ymin: 17.9559 xmax: 174.111 ymax: 71.2727
#> Geodetic CRS:  WGS 84
#> # A tibble: 31,254 × 5
#>    city         state_name      county_name population            geometry
#>  * <chr>        <chr>           <chr>            <dbl>         <POINT [°]>
#>  1 New York     New York        Queens        18832416  (-73.9249 40.6943)
#>  2 Los Angeles  California      Los Angeles   11885717 (-118.4068 34.1141)
#>  3 Chicago      Illinois        Cook           8489066  (-87.6866 41.8375)
#>  4 Miami        Florida         Miami-Dade     6113982   (-80.2101 25.784)
#>  5 Houston      Texas           Harris         6046392   (-95.3885 29.786)
#>  6 Dallas       Texas           Dallas         5843632  (-96.7667 32.7935)
#>  7 Philadelphia Pennsylvania    Philadelph…    5696588  (-75.1339 40.0077)
#>  8 Atlanta      Georgia         Fulton         5211164   (-84.422 33.7628)
#>  9 Washington   District of Co… District o…    5146120  (-77.0163 38.9047)
#> 10 Boston       Massachusetts   Suffolk        4355184  (-71.0852 42.3188)
#> # ℹ 31,244 more rows
…
Since sf objects are data.frames, our dplyr verbs work!

Lets find the most populous city in each Colorado county…

sf and dplyr

cities_sf

#> Simple feature collection with 31254 features and 4 fields
#> Geometry type: POINT
#> Dimension:     XY
#> Bounding box:  xmin: -176.6295 ymin: 17.9559 xmax: 174.111 ymax: 71.2727
#> Geodetic CRS:  WGS 84
#> # A tibble: 31,254 × 5
#>    city         state_name      county_name population            geometry
#>  * <chr>        <chr>           <chr>            <dbl>         <POINT [°]>
#>  1 New York     New York        Queens        18832416  (-73.9249 40.6943)
#>  2 Los Angeles  California      Los Angeles   11885717 (-118.4068 34.1141)
#>  3 Chicago      Illinois        Cook           8489066  (-87.6866 41.8375)
#>  4 Miami        Florida         Miami-Dade     6113982   (-80.2101 25.784)
#>  5 Houston      Texas           Harris         6046392   (-95.3885 29.786)
#>  6 Dallas       Texas           Dallas         5843632  (-96.7667 32.7935)
#>  7 Philadelphia Pennsylvania    Philadelph…    5696588  (-75.1339 40.0077)
#>  8 Atlanta      Georgia         Fulton         5211164   (-84.422 33.7628)
#>  9 Washington   District of Co… District o…    5146120  (-77.0163 38.9047)
#> 10 Boston       Massachusetts   Suffolk        4355184  (-71.0852 42.3188)
#> # ℹ 31,244 more rows

sf and dplyr

cities_sf |>
  filter(state_name == "Colorado")

#> Simple feature collection with 477 features and 4 fields
#> Geometry type: POINT
#> Dimension:     XY
#> Bounding box:  xmin: -109.0066 ymin: 37.0155 xmax: -102.0804 ymax: 40.9849
#> Geodetic CRS:  WGS 84
#> # A tibble: 477 × 5
#>    city             state_name county_name population            geometry
#>  * <chr>            <chr>      <chr>            <dbl>         <POINT [°]>
#>  1 Denver           Colorado   Denver         2691349  (-104.8758 39.762)
#>  2 Colorado Springs Colorado   El Paso         638421 (-104.7605 38.8674)
#>  3 Aurora           Colorado   Arapahoe        390201 (-104.7237 39.7083)
#>  4 Fort Collins     Colorado   Larimer         339256 (-105.0656 40.5477)
#>  5 Lakewood         Colorado   Jefferson       156309 (-105.1172 39.6977)
#>  6 Greeley          Colorado   Weld            143554 (-104.7706 40.4152)
#>  7 Thornton         Colorado   Adams           142878 (-104.9438 39.9197)
#>  8 Grand Junction   Colorado   Mesa            141008 (-108.5673 39.0877)
#>  9 Arvada           Colorado   Jefferson       122835   (-105.151 39.832)
#> 10 Boulder          Colorado   Boulder         120121 (-105.2524 40.0248)
#> # ℹ 467 more rows

sf and dplyr

cities_sf |>
  filter(state_name == "Colorado") |>
  group_by(county_name)

#> Simple feature collection with 477 features and 4 fields
#> Geometry type: POINT
#> Dimension:     XY
#> Bounding box:  xmin: -109.0066 ymin: 37.0155 xmax: -102.0804 ymax: 40.9849
#> Geodetic CRS:  WGS 84
#> # A tibble: 477 × 5
#> # Groups:   county_name [64]
#>    city             state_name county_name population            geometry
#>    <chr>            <chr>      <chr>            <dbl>         <POINT [°]>
#>  1 Denver           Colorado   Denver         2691349  (-104.8758 39.762)
#>  2 Colorado Springs Colorado   El Paso         638421 (-104.7605 38.8674)
#>  3 Aurora           Colorado   Arapahoe        390201 (-104.7237 39.7083)
#>  4 Fort Collins     Colorado   Larimer         339256 (-105.0656 40.5477)
#>  5 Lakewood         Colorado   Jefferson       156309 (-105.1172 39.6977)
#>  6 Greeley          Colorado   Weld            143554 (-104.7706 40.4152)
#>  7 Thornton         Colorado   Adams           142878 (-104.9438 39.9197)
#>  8 Grand Junction   Colorado   Mesa            141008 (-108.5673 39.0877)
#>  9 Arvada           Colorado   Jefferson       122835   (-105.151 39.832)
#> 10 Boulder          Colorado   Boulder         120121 (-105.2524 40.0248)
#> # ℹ 467 more rows

sf and dplyr

cities_sf |>
  filter(state_name == "Colorado") |>
  group_by(county_name) |>
  slice_max(population, n = 1)

#> Simple feature collection with 64 features and 4 fields
#> Geometry type: POINT
#> Dimension:     XY
#> Bounding box:  xmin: -108.9071 ymin: 37.1751 xmax: -102.2627 ymax: 40.9849
#> Geodetic CRS:  WGS 84
#> # A tibble: 64 × 5
#> # Groups:   county_name [64]
#>    city           state_name county_name population            geometry
#>    <chr>          <chr>      <chr>            <dbl>         <POINT [°]>
#>  1 Thornton       Colorado   Adams           142878 (-104.9438 39.9197)
#>  2 Alamosa        Colorado   Alamosa           9847  (-105.877 37.4752)
#>  3 Aurora         Colorado   Arapahoe        390201 (-104.7237 39.7083)
#>  4 Pagosa Springs Colorado   Archuleta         1718 (-107.0307 37.2675)
#>  5 Springfield    Colorado   Baca              1482  (-102.6189 37.405)
#>  6 Las Animas     Colorado   Bent              2480 (-103.2236 38.0695)
#>  7 Boulder        Colorado   Boulder         120121 (-105.2524 40.0248)
#>  8 Broomfield     Colorado   Broomfield       75110 (-105.0526 39.9542)
#>  9 Salida         Colorado   Chaffee           5786 (-105.9979 38.5298)
#> 10 Cheyenne Wells Colorado   Cheyenne           949 (-102.3521 38.8192)
#> # ℹ 54 more rows
…
