ESS 523c – Week 5
…
#> lm(formula = flipper_length_mm ~ ., data = normalized_data)
#> 
#> Coefficients:
#>       (Intercept)     bill_length_mm        body_mass_g           sex_male  
#>          200.9649             2.2754             4.6414             0.7208  
#>      island_Dream   island_Torgersen  species_Chinstrap     species_Gentoo  
#>            0.6525             0.9800             0.5640             8.0796  
#>  speciesChinstrap      speciesGentoo  
#>                NA                 NA
#> # A tibble: 1 × 12
#>   r.squared adj.r.squared sigma statistic   p.value    df logLik   AIC   BIC
#>       <dbl>         <dbl> <dbl>     <dbl>     <dbl> <dbl>  <dbl> <dbl> <dbl>
#> 1     0.863         0.861  5.23      294. 2.15e-136     7 -1020. 2057. 2092.
#> # ℹ 3 more variables: deviance <dbl>, df.residual <int>, nobs <int>
#> # A tibble: 333 × 15
#>    bill_length_mm body_mass_g flipper_length_mm sex_male island_Dream
#>             <dbl>       <dbl>             <int>    <dbl>        <dbl>
#>  1         -0.886      -0.565               181    0.990       -0.750
#>  2         -0.812      -0.502               186   -1.01        -0.750
#>  3         -0.665      -1.19                195   -1.01        -0.750
#>  4         -1.33       -0.940               193   -1.01        -0.750
#>  5         -0.849      -0.690               190    0.990       -0.750
#>  6         -0.923      -0.721               181   -1.01        -0.750
#>  7         -0.867       0.592               195    0.990       -0.750
#>  8         -0.518      -1.25                182   -1.01        -0.750
#>  9         -0.978      -0.502               191    0.990       -0.750
#> 10         -1.71        0.248               198    0.990       -0.750
#> # ℹ 323 more rows
#> # ℹ 10 more variables: island_Torgersen <dbl>, species_Chinstrap <dbl>,
#> #   species_Gentoo <dbl>, species <fct>, .fitted <dbl>, .resid <dbl>,
#> #   .hat <dbl>, .sigma <dbl>, .cooksd <dbl>, .std.resid <dbl>
…
#> lm(formula = flipper_length_mm ~ ., data = normalized_data)
#> 
#> Coefficients:
#>       (Intercept)     bill_length_mm        body_mass_g           sex_male  
#>          200.9649             2.2754             4.6414             0.7208  
#>      island_Dream   island_Torgersen  species_Chinstrap     species_Gentoo  
#>            0.6525             0.9800             0.5640             8.0796  
#>  speciesChinstrap      speciesGentoo  
#>                NA                 NA
#> # A tibble: 1 × 12
#>   r.squared adj.r.squared sigma statistic   p.value    df logLik   AIC   BIC
#>       <dbl>         <dbl> <dbl>     <dbl>     <dbl> <dbl>  <dbl> <dbl> <dbl>
#> 1     0.863         0.861  5.23      294. 2.15e-136     7 -1020. 2057. 2092.
#> # ℹ 3 more variables: deviance <dbl>, df.residual <int>, nobs <int>
#> # A tibble: 333 × 15
#>    bill_length_mm body_mass_g flipper_length_mm sex_male island_Dream
#>             <dbl>       <dbl>             <int>    <dbl>        <dbl>
#>  1         -0.886      -0.565               181    0.990       -0.750
#>  2         -0.812      -0.502               186   -1.01        -0.750
#>  3         -0.665      -1.19                195   -1.01        -0.750
#>  4         -1.33       -0.940               193   -1.01        -0.750
#>  5         -0.849      -0.690               190    0.990       -0.750
#>  6         -0.923      -0.721               181   -1.01        -0.750
#>  7         -0.867       0.592               195    0.990       -0.750
#>  8         -0.518      -1.25                182   -1.01        -0.750
#>  9         -0.978      -0.502               191    0.990       -0.750
#> 10         -1.71        0.248               198    0.990       -0.750
#> # ℹ 323 more rows
#> # ℹ 10 more variables: island_Torgersen <dbl>, species_Chinstrap <dbl>,
#> #   species_Gentoo <dbl>, species <fct>, .fitted <dbl>, .resid <dbl>,
#> #   .hat <dbl>, .sigma <dbl>, .cooksd <dbl>, .std.resid <dbl>
…
set.seed(3214)
bootstraps(penguins_train)
#> # Bootstrap sampling 
#> # A tibble: 25 × 2
#>    splits            id         
#>    <list>            <chr>      
#>  1 <split [275/96]>  Bootstrap01
#>  2 <split [275/105]> Bootstrap02
#>  3 <split [275/108]> Bootstrap03
#>  4 <split [275/111]> Bootstrap04
#>  5 <split [275/102]> Bootstrap05
#>  6 <split [275/98]>  Bootstrap06
#>  7 <split [275/92]>  Bootstrap07
#>  8 <split [275/97]>  Bootstrap08
#>  9 <split [275/100]> Bootstrap09
#> 10 <split [275/99]>  Bootstrap10
#> # ℹ 15 more rows
…
How do you use your new model?

augment() will return the dataset with predictions and residuals added.

dt_preds <- augment(dt_wf, new_data = forested_test)

#> # A tibble: 1,422 × 22
#>    .pred_class .pred_Yes .pred_No forested  year elevation eastness northness
#>    <fct>           <dbl>    <dbl> <fct>    <dbl>     <dbl>    <dbl>     <dbl>
#>  1 Yes            0.904    0.0955 No        2005       164      -84        53
#>  2 Yes            0.904    0.0955 Yes       2005       806       47       -88
#>  3 No             0.423    0.577  Yes       2005      2240      -67       -74
#>  4 Yes            0.904    0.0955 Yes       2005       787       66       -74
#>  5 Yes            0.904    0.0955 Yes       2005      1330       99         7
#>  6 Yes            0.904    0.0955 Yes       2005      1423       46        88
#>  7 Yes            0.904    0.0955 Yes       2014       546      -92       -38
#>  8 Yes            0.904    0.0955 Yes       2014      1612       30       -95
#>  9 No             0.0788   0.921  No        2014       235        0      -100
#> 10 No             0.0788   0.921  No        2014       308      -70       -70
#> # ℹ 1,412 more rows
#> # ℹ 14 more variables: roughness <dbl>, tree_no_tree <fct>, dew_temp <dbl>,
#> #   precip_annual <dbl>, temp_annual_mean <dbl>, temp_annual_min <dbl>,
#> #   temp_annual_max <dbl>, temp_january_min <dbl>, vapor_min <dbl>,
#> #   vapor_max <dbl>, canopy_cover <dbl>, lon <dbl>, lat <dbl>, land_type <fct>
…
